Information: Updating design information... (UID-85)
Warning: Design 'dlx_32_8_1_1' contains 1 high-fanout nets. A fanout number of 1000 will be used for delay calculations involving these nets. (TIM-134)
Information: Timing loop detected. (OPT-150)
	cu/hazard_det_unit/th_value_reg[0]/G cu/hazard_det_unit/th_value_reg[0]/Q cu/hazard_det_unit/U62/A1 cu/hazard_det_unit/U62/ZN cu/hazard_det_unit/U63/A1 cu/hazard_det_unit/U63/ZN cu/hazard_det_unit/counting_end_reg/G cu/hazard_det_unit/counting_end_reg/Q cu/hazard_det_unit/U27/A2 cu/hazard_det_unit/U27/ZN cu/hazard_det_unit/U58/A1 cu/hazard_det_unit/U58/ZN 
Information: Timing loop detected. (OPT-150)
	cu/hazard_det_unit/U72/A3 cu/hazard_det_unit/U72/ZN cu/hazard_det_unit/U63/A2 cu/hazard_det_unit/U63/ZN cu/hazard_det_unit/counting_end_reg/G cu/hazard_det_unit/counting_end_reg/Q cu/hazard_det_unit/U27/A2 cu/hazard_det_unit/U27/ZN cu/hazard_det_unit/U58/A1 cu/hazard_det_unit/U58/ZN cu/hazard_det_unit/is_stalled_reg/G cu/hazard_det_unit/is_stalled_reg/Q 
Warning: Disabling timing arc between pins 'G' and 'Q' on cell 'cu/hazard_det_unit/counting_end_reg'
         to break a timing loop. (OPT-314)
Warning: Disabling timing arc between pins 'G' and 'Q' on cell 'cu/hazard_det_unit/is_stalled_reg'
         to break a timing loop. (OPT-314)
Warning: Disabling timing arc between pins 'G' and 'Q' on cell 'cu/hazard_det_unit/hold_sel_sig_reg'
         to break a timing loop. (OPT-314)
Warning: Disabling timing arc between pins 'G' and 'Q' on cell 'cu/hazard_det_unit/hold_en_sig_reg'
         to break a timing loop. (OPT-314)
 
****************************************
Report : timing
        -path full
        -delay max
        -max_paths 1
Design : dlx_32_8_1_1
Version: F-2011.09-SP3
Date   : Fri Oct 18 18:35:42 2019
****************************************

 # A fanout number of 1000 was used for high fanout net computations.

Operating Conditions: typical   Library: NangateOpenCellLibrary
Wire Load Model Mode: top

  Startpoint: dp/IR/data_reg[27]
              (rising edge-triggered flip-flop clocked by clk)
  Endpoint: dp/reg_wra_0/data_reg[0]
            (rising edge-triggered flip-flop clocked by clk')
  Path Group: clk
  Path Type: max

  Des/Clust/Port     Wire Load Model       Library
  ------------------------------------------------
  dlx_32_8_1_1       5K_hvratio_1_1        NangateOpenCellLibrary

  Point                                                   Incr       Path
  --------------------------------------------------------------------------
  clock clk (rise edge)                                   0.00       0.00
  clock network delay (ideal)                             0.00       0.00
  dp/IR/data_reg[27]/CK (DFFR_X1)                         0.00       0.00 r
  dp/IR/data_reg[27]/Q (DFFR_X1)                          0.08       0.08 f
  dp/IR/Q[27] (reg_gen_NBIT32_0)                          0.00       0.08 f
  dp/U33/ZN (OR2_X1)                                      0.06       0.14 f
  dp/U35/ZN (NOR4_X2)                                     0.17       0.31 r
  dp/U12/ZN (INV_X1)                                      0.11       0.43 f
  dp/U25/ZN (NAND2_X1)                                    0.07       0.49 r
  dp/U24/ZN (OAI21_X1)                                    0.03       0.53 f
  dp/pipe_reg_wra_out_tri[0][0]/Z (TBUF_X1)               0.06       0.58 f
  dp/reg_wra_0/D[0] (reg_gen_NBIT5_0)                     0.00       0.58 f
  dp/reg_wra_0/U11/ZN (NAND2_X1)                          0.03       0.61 r
  dp/reg_wra_0/U10/ZN (OAI21_X1)                          0.03       0.64 f
  dp/reg_wra_0/data_reg[0]/D (DFFR_X1)                    0.01       0.65 f
  data arrival time                                                  0.65

  clock clk' (rise edge)                                  1.00       1.00
  clock network delay (ideal)                             0.00       1.00
  dp/reg_wra_0/data_reg[0]/CK (DFFR_X1)                   0.00       1.00 r
  library setup time                                     -0.04       0.96
  data required time                                                 0.96
  --------------------------------------------------------------------------
  data required time                                                 0.96
  data arrival time                                                 -0.65
  --------------------------------------------------------------------------
  slack (MET)                                                        0.31


1
