\relax 
\babel@aux{english}{}
\@writefile{toc}{\contentsline {chapter}{\numberline {1}Overview}{1}}
\@writefile{lof}{\addvspace {10\p@ }}
\@writefile{lot}{\addvspace {10\p@ }}
\@writefile{toc}{\contentsline {section}{\numberline {1.1}Top View}{1}}
\@writefile{lof}{\contentsline {figure}{\numberline {1.1}{\ignorespaces Schematic top view of the DLX \relax }}{1}}
\providecommand*\caption@xref[2]{\@setref\relax\@undefined{#1}}
\newlabel{fig:dlx_top}{{1.1}{1}}
\@writefile{toc}{\contentsline {section}{\numberline {1.2}Features}{1}}
\@writefile{toc}{\contentsline {chapter}{\numberline {2}Datapath}{3}}
\@writefile{lof}{\addvspace {10\p@ }}
\@writefile{lot}{\addvspace {10\p@ }}
\newlabel{chap1}{{2}{3}}
\@writefile{lof}{\contentsline {figure}{\numberline {2.1}{\ignorespaces Top view of the Datapath structure with the five stages highlighted. \relax }}{3}}
\newlabel{fig:datapath_top}{{2.1}{3}}
\@writefile{toc}{\contentsline {section}{\numberline {2.1}Fetch}{4}}
\@writefile{lof}{\contentsline {figure}{\numberline {2.2}{\ignorespaces View of the fetch stage structure: in red the enable signals from CU, in blue the data input from other stages of the datapath. \relax }}{4}}
\newlabel{fig:fetch}{{2.2}{4}}
\@writefile{toc}{\contentsline {section}{\numberline {2.2}Decode}{4}}
\@writefile{toc}{\contentsline {subsection}{\numberline {2.2.1}Register File}{4}}
\@writefile{toc}{\contentsline {subsection}{\numberline {2.2.2}Data forwarding (Optimization)}{4}}
\@writefile{lof}{\contentsline {figure}{\numberline {2.3}{\ignorespaces View of the decode stage structure excluding the branch computation structure: in red the enable signals from CU. \relax }}{5}}
\newlabel{fig:decode}{{2.3}{5}}
\@writefile{toc}{\contentsline {subsection}{\numberline {2.2.3}Earlier branch computation (Optimization)}{5}}
\@writefile{lof}{\contentsline {figure}{\numberline {2.4}{\ignorespaces Details of the branch computing structure\relax }}{5}}
\newlabel{fig:branch_delay}{{2.4}{5}}
\@writefile{toc}{\contentsline {subsection}{\numberline {2.2.4}Jump Unit (Optimization)}{5}}
\@writefile{lot}{\contentsline {table}{\numberline {2.1}{\ignorespaces Opcode encoding for the jump unit\relax }}{6}}
\newlabel{tab:1}{{2.1}{6}}
\@writefile{toc}{\contentsline {section}{\numberline {2.3}Execution}{6}}
\@writefile{lof}{\contentsline {figure}{\numberline {2.5}{\ignorespaces View of the execution stage structure: in red the enable signals from CU. \relax }}{6}}
\newlabel{fig:exec}{{2.5}{6}}
\@writefile{toc}{\contentsline {subsection}{\numberline {2.3.1}ALU}{6}}
\@writefile{toc}{\contentsline {subsubsection}{Logic Unit}{6}}
\@writefile{lof}{\contentsline {figure}{\numberline {2.6}{\ignorespaces Conceptual scheme of the ALU. \relax }}{7}}
\newlabel{fig:alu}{{2.6}{7}}
\@writefile{lot}{\contentsline {table}{\numberline {2.2}{\ignorespaces Opcode encoding for the ALU\relax }}{7}}
\newlabel{tab:2}{{2.2}{7}}
\@writefile{lot}{\contentsline {table}{\numberline {2.3}{\ignorespaces Opcode encoding for the Logic Unit\relax }}{7}}
\newlabel{tab:3}{{2.3}{7}}
\@writefile{toc}{\contentsline {subsection}{\numberline {2.3.2}Multiplication Unit (Optimization)}{7}}
\@writefile{lof}{\contentsline {figure}{\numberline {2.7}{\ignorespaces Details of MUL's input generation. \relax }}{8}}
\newlabel{fig:mul}{{2.7}{8}}
\@writefile{toc}{\contentsline {subsection}{\numberline {2.3.3}Comparator}{8}}
\@writefile{lot}{\contentsline {table}{\numberline {2.4}{\ignorespaces Opcode encoding for the Comparator. Z is 1 when the result is all zeros\relax }}{8}}
\newlabel{tab:4}{{2.4}{8}}
\@writefile{toc}{\contentsline {section}{\numberline {2.4}Memory and Write-Back}{8}}
\@writefile{lof}{\contentsline {figure}{\numberline {2.8}{\ignorespaces Schematic view of MEM and WB stage. \relax }}{9}}
\newlabel{fig:mem}{{2.8}{9}}
\@writefile{toc}{\contentsline {chapter}{\numberline {3}Control Unit}{10}}
\@writefile{lof}{\addvspace {10\p@ }}
\@writefile{lot}{\addvspace {10\p@ }}
\@writefile{toc}{\contentsline {section}{\numberline {3.1}Top View}{10}}
\@writefile{lof}{\contentsline {figure}{\numberline {3.1}{\ignorespaces Conceptual scheme of the Control Unit. \relax }}{10}}
\newlabel{fig:cu}{{3.1}{10}}
\@writefile{toc}{\contentsline {section}{\numberline {3.2}Control Word Generation}{10}}
\@writefile{toc}{\contentsline {section}{\numberline {3.3}Hazard Detection}{11}}
\@writefile{toc}{\contentsline {subsection}{\numberline {3.3.1}Detection Process}{11}}
\@writefile{toc}{\contentsline {section}{\numberline {3.4}Forwarding}{11}}
\@writefile{toc}{\contentsline {chapter}{\numberline {4}Testbenches}{12}}
\@writefile{lof}{\addvspace {10\p@ }}
\@writefile{lot}{\addvspace {10\p@ }}
\newlabel{testbenches}{{4}{12}}
\@writefile{toc}{\contentsline {section}{\numberline {4.1}Test 1: Branches}{12}}
\@writefile{toc}{\contentsline {subsection}{\numberline {4.1.1}Tests with Branch Delay Disabled}{13}}
\@writefile{lof}{\contentsline {figure}{\numberline {4.1}{\ignorespaces Result of the test executed with data forwarding disabled, it last 30 c.c. ( 17 instructions, 4 due to pipeline, 5 control hazards, 4 RAW stalls ) \relax }}{13}}
\newlabel{fig:branch_test_no_fw}{{4.1}{13}}
\@writefile{lof}{\contentsline {figure}{\numberline {4.2}{\ignorespaces Result of the test executed with data forwarding enabled, It last 26 c.c. (17 instructions, 4 due to pipeline,5 control hazards, no RAW stalls ) \relax }}{13}}
\newlabel{fig:branch_test_forwarding}{{4.2}{13}}
\@writefile{toc}{\contentsline {subsection}{\numberline {4.1.2}Tests with Branch Delay Enabled}{14}}
\@writefile{lof}{\contentsline {figure}{\numberline {4.3}{\ignorespaces Result of the test executed with data forwarding disabled, it last 31 c.c. (23 instructions, 4 due to pipeline, 4 RAW stalls )\relax }}{14}}
\newlabel{fig:branch_del_en_fw_dis}{{4.3}{14}}
\@writefile{lof}{\contentsline {figure}{\numberline {4.4}{\ignorespaces Result of the test executed with data forwarding enabled, It last 27 c.c. (23 instructions, 4 due to pipeline, no RAW stalls )\relax }}{14}}
\newlabel{fig:branch_del_en_forw_en}{{4.4}{14}}
\@writefile{toc}{\contentsline {section}{\numberline {4.2}Test 2: Forwarding and Hazards}{15}}
\@writefile{toc}{\contentsline {subsection}{\numberline {4.2.1}Forwarding Disabled}{16}}
\@writefile{lof}{\contentsline {figure}{\numberline {4.5}{\ignorespaces Waveforms showing the instruction register and the stall signal.\relax }}{16}}
\newlabel{fig:fw_test_fw_dis_1}{{4.5}{16}}
\@writefile{lof}{\contentsline {figure}{\numberline {4.6}{\ignorespaces Waveforms showing the instruction register and the stall signal.\relax }}{16}}
\newlabel{fig:fw_test_fw_dis_2}{{4.6}{16}}
\@writefile{lof}{\contentsline {figure}{\numberline {4.7}{\ignorespaces Waveforms showing the instruction register and the stall signal.\relax }}{16}}
\newlabel{fig:fw_test_fw_dis_3}{{4.7}{16}}
\@writefile{lof}{\contentsline {figure}{\numberline {4.8}{\ignorespaces Waveforms showing the instruction register and the stall signal.\relax }}{16}}
\newlabel{fig:fw_test_fw_dis_4}{{4.8}{16}}
\@writefile{lof}{\contentsline {figure}{\numberline {4.9}{\ignorespaces Waveforms showing the instruction register and the stall signal.\relax }}{16}}
\newlabel{fig:fw_test_fw_dis_5}{{4.9}{16}}
\@writefile{lof}{\contentsline {figure}{\numberline {4.10}{\ignorespaces Changes of the content of the registers during the test.\relax }}{16}}
\newlabel{fig:fw_test_fw_dis_regs}{{4.10}{16}}
\@writefile{lof}{\contentsline {figure}{\numberline {4.11}{\ignorespaces Changes of the content of the data Memory during the test.\relax }}{17}}
\newlabel{fig:fw_test_fw_dis_dmem}{{4.11}{17}}
\@writefile{toc}{\contentsline {subsection}{\numberline {4.2.2}Forwarding Enabled}{17}}
\@writefile{lof}{\contentsline {figure}{\numberline {4.12}{\ignorespaces Waveforms showing the instruction register and the stall signal.\relax }}{17}}
\newlabel{fig:fw_test_fw_en_1}{{4.12}{17}}
\@writefile{lof}{\contentsline {figure}{\numberline {4.13}{\ignorespaces Waveforms showing the instruction register and the stall signal.\relax }}{17}}
\newlabel{fig:fw_test_fw_en_2}{{4.13}{17}}
\@writefile{lof}{\contentsline {figure}{\numberline {4.14}{\ignorespaces Waveforms showing the instruction register and the stall signal.\relax }}{17}}
\newlabel{fig:fw_test_fw_en_3}{{4.14}{17}}
\@writefile{lof}{\contentsline {figure}{\numberline {4.15}{\ignorespaces Waveforms showing the instruction register and the stall signal.\relax }}{18}}
\newlabel{fig:fw_test_fw_en_4}{{4.15}{18}}
\@writefile{lof}{\contentsline {figure}{\numberline {4.16}{\ignorespaces Changes of the content of the registers during the test.\relax }}{18}}
\newlabel{fig:fw_test_fw_en_regs}{{4.16}{18}}
\@writefile{lof}{\contentsline {figure}{\numberline {4.17}{\ignorespaces Changes of the content of the data Memory during the test.\relax }}{18}}
\newlabel{fig:fw_test_fw_en_dmem}{{4.17}{18}}
\@writefile{toc}{\contentsline {section}{\numberline {4.3}Test 3: Comparator Test}{18}}
\@writefile{lof}{\contentsline {figure}{\numberline {4.18}{\ignorespaces Changes of the content of the Registers during the test.\relax }}{20}}
\newlabel{fig:comp_test_regs}{{4.18}{20}}
\@writefile{toc}{\contentsline {section}{\numberline {4.4}Test 4: General Test}{20}}
\@writefile{lof}{\contentsline {figure}{\numberline {4.19}{\ignorespaces Changes of the content of the Registers during the first part of the test.\relax }}{22}}
\newlabel{fig:general_test_1}{{4.19}{22}}
\@writefile{lof}{\contentsline {figure}{\numberline {4.20}{\ignorespaces Changes of the content of the Registers during the part of the test related to mult instructions. Note: Mult output is on 64 bits, hence the destination registers of mult instruction are reg[i] and reg[i+1] .\relax }}{22}}
\newlabel{fig:general_test_mult}{{4.20}{22}}
\@writefile{lof}{\contentsline {figure}{\numberline {4.21}{\ignorespaces Changes of the content of the Registers during the test.\relax }}{23}}
\newlabel{fig:general_test_2}{{4.21}{23}}
\@writefile{toc}{\contentsline {chapter}{\numberline {5}Synthesis}{24}}
\@writefile{lof}{\addvspace {10\p@ }}
\@writefile{lot}{\addvspace {10\p@ }}
\@writefile{lof}{\contentsline {figure}{\numberline {5.1}{\ignorespaces Critical path timing analysis\relax }}{25}}
\newlabel{fig:cp}{{5.1}{25}}
\@writefile{lof}{\contentsline {figure}{\numberline {5.2}{\ignorespaces Synthesis comparison of the DLX (before - after optimization)\relax }}{25}}
\newlabel{fig:table}{{5.2}{25}}
\@writefile{lof}{\contentsline {figure}{\numberline {5.3}{\ignorespaces Synthesis result of the DLX\relax }}{26}}
\newlabel{fig:dlx_syn_top}{{5.3}{26}}
\@writefile{toc}{\contentsline {chapter}{\numberline {6}Layout}{27}}
\@writefile{lof}{\addvspace {10\p@ }}
\@writefile{lot}{\addvspace {10\p@ }}
\@writefile{lof}{\contentsline {figure}{\numberline {6.1}{\ignorespaces Physical implementation dump view of the DLX \relax }}{27}}
\newlabel{fig:dlx_dump}{{6.1}{27}}
\@writefile{toc}{\contentsline {chapter}{\numberline {7}Conclusion}{28}}
\@writefile{lof}{\addvspace {10\p@ }}
\@writefile{lot}{\addvspace {10\p@ }}
